MAT 427 - Spring 2025 – MATH 427: Preprocessing, Missing Data, and Resampling
…
Initial Data Split

set.seed(427)

data_split <- initial_split(ames, strata = "Sale_Price")
ames_train <- training(data_split)
ames_test  <- testing(data_split)

Define Folds

ames_folds <- vfold_cv(ames_train, v = 10, repeats = 10)
ames_folds

#  10-fold cross-validation repeated 10 times 
# A tibble: 100 × 3
   splits             id       id2   
   <list>             <chr>    <chr> 
 1 <split [1977/220]> Repeat01 Fold01
 2 <split [1977/220]> Repeat01 Fold02
 3 <split [1977/220]> Repeat01 Fold03
 4 <split [1977/220]> Repeat01 Fold04
 5 <split [1977/220]> Repeat01 Fold05
 6 <split [1977/220]> Repeat01 Fold06
 7 <split [1977/220]> Repeat01 Fold07
 8 <split [1978/219]> Repeat01 Fold08
 9 <split [1978/219]> Repeat01 Fold09
10 <split [1978/219]> Repeat01 Fold10
# ℹ 90 more rows
…
Initial Data Split

set.seed(427)

data_split <- initial_split(ames, strata = "Sale_Price")
ames_train <- training(data_split)
ames_test  <- testing(data_split)

Define Folds

ames_folds <- vfold_cv(ames_train, v = 10, repeats = 10)
ames_folds

#  10-fold cross-validation repeated 10 times 
# A tibble: 100 × 3
   splits           id       id2   
   <list>           <chr>    <chr> 
 1 <split [594/66]> Repeat01 Fold01
 2 <split [594/66]> Repeat01 Fold02
 3 <split [594/66]> Repeat01 Fold03
 4 <split [594/66]> Repeat01 Fold04
 5 <split [594/66]> Repeat01 Fold05
 6 <split [594/66]> Repeat01 Fold06
 7 <split [594/66]> Repeat01 Fold07
 8 <split [594/66]> Repeat01 Fold08
 9 <split [594/66]> Repeat01 Fold09
10 <split [594/66]> Repeat01 Fold10
# ℹ 90 more rows
…
